{
    "data": [
        {
            "_id": "698bb873847715b1f69867fb",
            "firstName": "bdndmx",
            "lastName": "dmdcmc",
            "email": "aberrazainabsm@gmail.com",
            "phone": "+92324506321",
            "countryCode": "United States",
            "authType": "email",
            "isPhoneVerified": true,
            "isVerified": false,
            "sexualOrientation": [],
            "lifestyleLikes": [],
            "bestShorts": [],
            "createdAt": "2026-02-10T23:00:03.401Z",
            "updatedAt": "2026-02-10T23:00:08.760Z",
            "__v": 0
        },
        {
            "_id": "698bb7bb847715b1f69867ca",
            "firstName": "abeera",
            "lastName": "Zainab",
            "email": "abeerazainab13467@gmail.com",
            "phone": "+923245064549",
            "countryCode": "United States",
            "authType": "email",
            "isPhoneVerified": true,
            "isVerified": false,
            "sexualOrientation": [
                "straight"
            ],
            "lifestyleLikes": [
                "coffee enthusiast",
                "movie buff",
                "gamer"
            ],
            "bestShorts": null,
            "createdAt": "2026-02-10T22:56:59.294Z",
            "updatedAt": "2026-02-10T22:57:32.496Z",
            "__v": 1,
            "dob": "1970-01-01T00:00:00.000Z",
            "education": null,
            "gender": "female",
            "jobTitle": null,
            "pronouns": "She/Her",
            "shortBio": null,
            "vibes": null
        },
        {
            "_id": "698aed21540ab7fcc8a480c5",
            "firstName": "cafeen",
            "lastName": "abf",
            "email": "cafeen.005@gmail.com",
            "phone": "+9292314556382",
            "countryCode": "United States",
            "authType": "email",
            "isPhoneVerified": false,
            "isVerified": false,
            "sexualOrientation": [],
            "lifestyleLikes": [],
            "bestShorts": [],
            "createdAt": "2026-02-10T08:32:33.343Z",
            "updatedAt": "2026-02-10T08:35:44.904Z",
            "__v": 0
        },
        {
            "_id": "698a3efe540ab7fcc8a48045",
            "firstName": "Ethan",
            "lastName": "Karian",
            "email": "ekarian417@gmail.com",
            "phone": "+18505861700",
            "countryCode": "United States",
            "authType": "email",
            "isPhoneVerified": false,
            "isVerified": false,
            "sexualOrientation": [],
            "lifestyleLikes": [],
            "bestShorts": [],
            "createdAt": "2026-02-09T20:09:34.260Z",
            "updatedAt": "2026-02-09T20:09:34.260Z",
            "__v": 0
        },
        {
            "_id": "698a3da3540ab7fcc8a48032",
            "firstName": "Nick",
            "lastName": "Schryver",
            "email": "yfdrs6kvd2@privaterelay.appleid.com",
            "authType": "apple",
            "firebaseUserId": "zqlqcyX3VshsRerWcPYCicrXh662",
            "isPhoneVerified": false,
            "isVerified": true,
            "verifiedAt": "2026-02-09T20:03:47.926Z",
            "sexualOrientation": [
                "straight"
            ],
            "lifestyleLikes": null,
            "bestShorts": null,
            "createdAt": "2026-02-09T20:03:47.927Z",
            "updatedAt": "2026-02-09T20:22:38.190Z",
            "__v": 1,
            "countryCode": null,
            "dob": "2001-03-23T00:00:00.000Z",
            "education": null,
            "gender": "male",
            "jobTitle": null,
            "pronouns": "He/Him",
            "shortBio": null,
            "vibes": null
        },
        {
            "_id": "69863c585f012b8bcb5cab7c",
            "firstName": "Wajahat ",
            "lastName": "Ali",
            "email": "wajahtali2k19bscs129@gmail.com",
            "phone": "+923027424140",
            "countryCode": null,
            "authType": "email",
            "isPhoneVerified": true,
            "isVerified": false,
            "sexualOrientation": null,
            "lifestyleLikes": null,
            "bestShorts": [
                "https://fennec-bucket.s3.us-east-1.amazonaws.com/d23868d8-146a-44ad-b945-0eb1c86600ab.jpg"
            ],
            "createdAt": "2026-02-06T19:09:12.666Z",
            "updatedAt": "2026-02-16T20:10:22.823Z",
            "__v": 5,
            "dob": "1970-01-01T00:00:00.000Z",
            "education": null,
            "gender": null,
            "jobTitle": null,
            "pronouns": null,
            "shortBio": null,
            "vibes": null
        },
        {
            "_id": "6985f6c25f012b8bcb5ca956",
            "firstName": "Kamran",
            "lastName": "Khalid",
            "email": "thekamrankhalid@gmail.com",
            "phone": "+12345678900",
            "countryCode": "United States",
            "authType": "email",
            "isPhoneVerified": false,
            "isVerified": false,
            "sexualOrientation": [],
            "lifestyleLikes": [],
            "bestShorts": [],
            "createdAt": "2026-02-06T14:12:18.620Z",
            "updatedAt": "2026-02-06T14:12:18.620Z",
            "__v": 0
        },
        {
            "_id": "69845427346e632f6f03a625",
            "firstName": "abeera",
            "lastName": "Zainab",
            "email": "abeerazainab@gmail.com",
            "phone": "+923245064542",
            "countryCode": "United States",
            "authType": "email",
            "isPhoneVerified": true,
            "isVerified": false,
            "sexualOrientation": [],
            "lifestyleLikes": [],
            "bestShorts": [],
            "createdAt": "2026-02-05T08:26:15.001Z",
            "updatedAt": "2026-02-05T08:26:20.608Z",
            "__v": 0
        },
        {
            "_id": "6984532c346e632f6f03a61b",
            "firstName": "abeera",
            "lastName": "Zainab",
            "email": "abeerazainab96@gmail.com",
            "phone": "+11234567896",
            "countryCode": "United States",
            "authType": "email",
            "isPhoneVerified": false,
            "isVerified": false,
            "sexualOrientation": [],
            "lifestyleLikes": [],
            "bestShorts": [],
            "createdAt": "2026-02-05T08:22:04.424Z",
            "updatedAt": "2026-02-05T08:22:04.424Z",
            "__v": 0
        },
        {
            "_id": "6980e773346e632f6f03a011",
            "firstName": "John",
            "lastName": "eagan",
            "email": "eaganjohn7@gmail.com",
            "phone": "+12056135567",
            "countryCode": "United States",
            "authType": "email",
            "isPhoneVerified": false,
            "isVerified": false,
            "sexualOrientation": [],
            "lifestyleLikes": [],
            "bestShorts": [],
            "createdAt": "2026-02-02T18:05:39.315Z",
            "updatedAt": "2026-02-16T20:05:20.829Z",
            "__v": 0
        }
    ],
    "pagination": {
        "page": 1,
        "limit": 10,
        "total": 20,
        "totalPages": 2
    }
}